…
```r
nas <- as_tibble(colSums(is.na(Ames))) %>%
    na_if(0) %>%
    drop_na()
nanavn <- as_tibble(names(which(colSums(is.na(Ames)) > 0)))
natabell <- bind_cols(nanavn, nas) %>%
    rename(Variabel = value...1, Antall_NA = value...2) %>%
    arrange(desc(Antall_NA))
#> New names:
#> • `value` -> `value...1`
#> • `value` -> `value...2`
natabell
#> # A tibble: 25 × 2
#>    Variabel      Antall_NA
#>    <chr>             <dbl>
#>  1 Pool.QC            2917
#>  2 Misc.Feature       2824
#>  3 Alley              2732
#>  4 Fence              2358
#>  5 Fireplace.Qu       1422
#>  6 Lot.Frontage        490
#>  7 Garage.Yr.Blt       159
#>  8 Garage.Qual         158
#>  9 Garage.Cond         158
#> 10 Garage.Type         157
#> # … with 15 more rows
```
…
```r
klass_log <- read_excel("Klass_Log.xlsx")
klass_log
#> # A tibble: 500 × 3
#>    Alder Inntekt  Kjop
#>    <dbl>   <dbl> <dbl>
#>  1    19  380000     0
#>  2    35  400000     0
#>  3    26  860000     0
#>  4    27 1140000     0
#>  5    19 1520000     0
#>  6    27 1160000     0
#>  7    27 1680000     0
#>  8    32 3000000     1
#>  9    25  660000     0
#> 10    35 1300000     0
#> # … with 490 more rows
```
…
